-------------------START-------------11/3/2020 3:00:55 PM
Level: INFO: , Page: UserManagementService, Procedure: AddUser,InfoMsg: Pre insert into Users for: fjdjf@ru9tjk.com, StackTrace: 
-------------------END-------------11/3/2020 3:00:55 PM
-------------------START-------------11/3/2020 3:01:16 PM
Level: INFO: , Page: UserManagementService, Procedure: AddUser - AddToSalesTable,TnfoMsg: Entered update advertiser_sales table, StackTrace: 
-------------------END-------------11/3/2020 3:01:16 PM
-------------------START-------------11/3/2020 7:30:32 PM
Level: INFO: , Page: UserManagementService, Procedure: AddUser,TnfoMsg: Pre insert into Users for: djnng@dkjf.cim
-------------------END-------------11/3/2020 7:30:32 PM
-------------------START-------------11/3/2020 7:34:27 PM
Level: INFO: , Page: UserManagementService, Procedure: AddUser,TnfoMsg: Pre insert into Users for: djnngjkl@dkjf.cim
-------------------END-------------11/3/2020 7:34:27 PM
-------------------START-------------11/3/2020 7:39:15 PM
Level: INFO: , Page: UserManagementService, Procedure: AddUser,TnfoMsg: Pre insert into Users for: djnl@dkjf.cim
-------------------END-------------11/3/2020 7:39:15 PM
-------------------START-------------11/3/2020 7:42:19 PM
Level: INFO: , Page: UserManagementService, Procedure: AddUser - AddToSalesTable,TnfoMsg: Entered update advertiser_sales table
-------------------END-------------11/3/2020 7:42:19 PM
-------------------START-------------11/3/2020 9:56:18 PM
Level: INFO: , Page: UserManagementService, Procedure: AddUser,TnfoMsg: Pre insert into Users for: pop@oop.com
-------------------END-------------11/3/2020 9:56:18 PM
-------------------START-------------11/3/2020 9:56:36 PM
Level: INFO: , Page: UserManagementService, Procedure: AddUser - AddToSalesTable,TnfoMsg: Entered update advertiser_sales table
-------------------END-------------11/3/2020 9:56:36 PM
-------------------START-------------12/15/2020 6:33:25 PM
Level: , Page: CreateUpdateCampaignService, Procedure: CreateNewCampaign - Pre Insert,TnfoMsg: test108
-------------------END-------------12/15/2020 6:33:25 PM
-------------------START-------------12/15/2020 6:33:25 PM
Level: , Page: CreateUpdateCampaignService, Procedure: CreateNewCampaign - Post Insert,TnfoMsg: 1172
-------------------END-------------12/15/2020 6:33:25 PM
-------------------START-------------12/15/2020 6:33:38 PM
Level: , Page: CreateUpdateCampaignService, Procedure: CreateNewCampaign_Advert - UpdateCampaignAdvert,TnfoMsg: 1413
-------------------END-------------12/15/2020 6:33:38 PM
-------------------START-------------12/16/2020 2:10:18 PM
Level: The query is SELECT u.UserId AS Value, CONCAT(FirstName,' ',LastName,'(',u.Email,')') AS Text FROM Users AS u
                                                INNER JOIN UsersCredit AS uc ON uc.UserId=u.UserId INNER JOIN Contacts as c ON c.UserId=u.UserId, Page: SharedSelectListsDAL, Procedure: GetSelectList,TnfoMsg: The submitted Id is 0
-------------------END-------------12/16/2020 2:10:18 PM
-------------------START-------------12/16/2020 2:10:18 PM
Level: The query is SELECT c.CurrencyId AS Value,c.CurrencyCode AS Text FROM Currencies AS c, Page: SharedSelectListsDAL, Procedure: GetSelectList,TnfoMsg: The submitted Id is 0
-------------------END-------------12/16/2020 2:10:18 PM
-------------------START-------------12/16/2020 2:10:18 PM
Level: The query is SELECT u.UserId AS Value, CONCAT(FirstName,' ',LastName,'(',u.Email,')') AS Text 
                                                FROM Users AS u LEFT JOIN Contacts AS c ON c.UserId=u.UserId
                                                WHERE VerificationStatus=1
                                                AND u.Activated=1 AND u.RoleId=3 
                                                AND u.UserId NOT IN(SELECT UserId FROM UsersCredit), Page: SharedSelectListsDAL, Procedure: GetSelectList,TnfoMsg: The submitted Id is 0
-------------------END-------------12/16/2020 2:10:18 PM
-------------------START-------------12/18/2020 3:27:08 PM
Level: The query is SELECT c.OperatorId AS Value,c.OperatorName AS Text FROM Operators AS c WHERE IsActive=1, Page: SharedSelectListsDAL, Procedure: GetSelectList,TnfoMsg: The submitted Id is 0
-------------------END-------------12/18/2020 3:27:08 PM
-------------------START-------------12/20/2020 6:44:26 PM
Level: The query is SELECT c.OperatorId AS Value,c.OperatorName AS Text FROM Operators AS c WHERE IsActive=1 AND CountryId = @Id, Page: SharedSelectListsDAL, Procedure: GetSelectList,TnfoMsg: The submitted Id is 10
-------------------END-------------12/20/2020 6:44:26 PM
-------------------START-------------12/20/2020 6:46:46 PM
Level: The query is SELECT c.OperatorId AS Value,c.OperatorName AS Text FROM Operators AS c WHERE IsActive=1 AND CountryId = @Id, Page: SharedSelectListsDAL, Procedure: GetSelectList,TnfoMsg: The submitted Id is 10
-------------------END-------------12/20/2020 6:46:46 PM
-------------------START-------------12/20/2020 6:58:20 PM
Level: The query is SELECT c.OperatorId AS Value,c.OperatorName AS Text FROM Operators AS c WHERE IsActive=1 AND CountryId = @Id, Page: SharedSelectListsDAL, Procedure: GetSelectList,TnfoMsg: The submitted Id is 10
-------------------END-------------12/20/2020 6:58:20 PM
-------------------START-------------12/20/2020 6:58:43 PM
Level: The submitted campaign Id is 1362, Page: CreateNewCampaignServgice, Procedure: CreateNewCampaign_Advert - Check submitted values,TnfoMsg: The submitted operator Id is 1
-------------------END-------------12/20/2020 6:58:43 PM
-------------------START-------------12/20/2020 6:58:46 PM
Level: The submitted operator Id is 1, Page: ConnectionStringService, Procedure: GetCampaignProfileIdFromAdtoneId,TnfoMsg: The submitted operator Id is 1362
-------------------END-------------12/20/2020 6:58:46 PM
-------------------START-------------12/20/2020 6:58:46 PM
Level: The submitted campaign Id is 1362, Page: CreateNewCampaignServgice, Procedure: CreateNewCampaign_Advert - Check before getting adtonecampId,TnfoMsg: The submitted operator Id is 1  And the newModel Op Id is 1
-------------------END-------------12/20/2020 6:58:46 PM
-------------------START-------------12/20/2020 6:58:46 PM
Level: The submitted operator Id is 1, Page: ConnectionStringService, Procedure: GetCampaignProfileIdFromAdtoneId,TnfoMsg: The submitted operator Id is 1362
-------------------END-------------12/20/2020 6:58:46 PM
-------------------START-------------12/20/2020 6:59:08 PM
Level: The submitted operator Id is 1, Page: ConnectionStringService, Procedure: GetCampaignProfileIdFromAdtoneId,TnfoMsg: The submitted operator Id is 1362
-------------------END-------------12/20/2020 6:59:08 PM
-------------------START-------------21/12/2020 09:52:23
Level: The query is SELECT c.OperatorId AS Value,c.OperatorName AS Text FROM Operators AS c WHERE IsActive=1, Page: SharedSelectListsDAL, Procedure: GetSelectList,TnfoMsg: The submitted Id is 0
-------------------END-------------21/12/2020 09:52:23
-------------------START-------------21/12/2020 09:52:38
Level: 14/04/2007 00:00:00, Page: ManagementReportService, Procedure: GetManReportAsync,TnfoMsg: 23/12/2020 00:00:00
-------------------END-------------21/12/2020 09:52:38
-------------------START-------------21/12/2020 09:53:25
Level: 14/04/2007 00:00:00, Page: ManagementReportService, Procedure: GetManReportAsync,TnfoMsg: 23/12/2020 00:00:00
-------------------END-------------21/12/2020 09:53:25
-------------------START-------------21/12/2020 10:01:43
Level: The query is SELECT c.OperatorId AS Value,c.OperatorName AS Text FROM Operators AS c WHERE IsActive=1, Page: SharedSelectListsDAL, Procedure: GetSelectList,TnfoMsg: The submitted Id is 0
-------------------END-------------21/12/2020 10:01:43
-------------------START-------------21/12/2020 10:01:46
Level: 14/04/2007 00:00:00, Page: ManagementReportService, Procedure: GetManReportAsync,TnfoMsg: 23/12/2020 00:00:00
-------------------END-------------21/12/2020 10:01:46
-------------------START-------------21/12/2020 10:02:42
Level: The query is SELECT c.CurrencyId AS Value,c.CurrencyCode AS Text FROM Currencies AS c, Page: SharedSelectListsDAL, Procedure: GetSelectList,TnfoMsg: The submitted Id is 0
-------------------END-------------21/12/2020 10:02:42
-------------------START-------------21/12/2020 10:04:50
Level: The query is SELECT c.CurrencyId AS Value,c.CurrencyCode AS Text FROM Currencies AS c, Page: SharedSelectListsDAL, Procedure: GetSelectList,TnfoMsg: The submitted Id is 0
-------------------END-------------21/12/2020 10:04:50
-------------------START-------------21/12/2020 18:30:52
Level: 2020-10-28 00:00:00, Page: ManagementReportService, Procedure: GetManReportAsync,TnfoMsg: 2020-11-14 00:00:00
-------------------END-------------21/12/2020 18:30:52
-------------------START-------------21/12/2020 18:31:59
Level: 2020-10-28 00:00:00, Page: ManagementReportService, Procedure: GetManReportAsync,TnfoMsg: 2020-11-14 00:00:00
-------------------END-------------21/12/2020 18:31:59
-------------------START-------------04/03/2021 08:11:48
Page: AdvertService, Procedure: ApproveReject - ApproveAd AdvertId=6437,ErrorMsg: Entered Approve OR reject 1= pending
LogLevel: 
 StackTrace  : 
------------END-------------------
-------------------START-------------04/03/2021 08:12:22
Page: AdvertService, Procedure: ApproveAd AdvertId=6437,ErrorMsg: Entered ApproveAd Got campaignAdvert which is AdtonesAdminWebApi.ViewModels.CampaignAdverts
LogLevel: 
 StackTrace  : 
------------END-------------------
-------------------START-------------04/03/2021 08:12:27
Page: AdvertService, Procedure: ApproveAd AdvertId=6437,ErrorMsg: Entered ApproveAd Ran UpdateStatus got System.Runtime.CompilerServices.AsyncTaskMethodBuilder`1+AsyncStateMachineBox`1[System.Boolean,AdtonesAdminWebApi.BusinessServices.AdvertService+<UpdateStatus>d__31]
LogLevel: 
 StackTrace  : 
------------END-------------------
-------------------START-------------04/03/2021 08:15:36
Page: AdvertService, Procedure: ApproveReject - ApproveAd AdvertId=6436,ErrorMsg: Entered Approve OR reject 1= pending
LogLevel: 
 StackTrace  : 
------------END-------------------
-------------------START-------------04/03/2021 08:15:37
Page: AdvertService, Procedure: ApproveAd AdvertId=6436,ErrorMsg: Entered ApproveAd Got campaignAdvert which is 
LogLevel: 
 StackTrace  : 
------------END-------------------
-------------------START-------------04/03/2021 08:18:13
Page: AdvertService, Procedure: ApproveReject - ApproveAd AdvertId=6435,ErrorMsg: Entered Approve OR reject 1= pending
LogLevel: 
 StackTrace  : 
------------END-------------------
-------------------START-------------04/03/2021 08:18:14
Page: AdvertService, Procedure: ApproveAd AdvertId=6435,ErrorMsg: Entered ApproveAd Got campaignAdvert which is 
LogLevel: 
 StackTrace  : 
------------END-------------------
-------------------START-------------04/03/2021 10:24:55
Page: AdvertService, Procedure: ApproveReject - ApproveAd AdvertId=6436,ErrorMsg: Entered Approve OR reject 1= pending
LogLevel: 
 StackTrace  : 
------------END-------------------
-------------------START-------------04/03/2021 10:24:56
Page: AdvertService, Procedure: ApproveAd AdvertId=6436,ErrorMsg: Entered ApproveAd Got campaignAdvert which is 
LogLevel: 
 StackTrace  : 
------------END-------------------
-------------------START-------------09/03/2021 15:37:40
Page: AdvertService, Procedure: ApproveReject - ApproveAd AdvertId=7419,ErrorMsg: Entered Approve OR reject 1= pending
LogLevel: 
 StackTrace  : 
------------END-------------------
-------------------START-------------09/03/2021 15:37:58
Page: AdvertService, Procedure: ApproveAd AdvertId=7419,ErrorMsg: Entered ApproveAd Got campaignAdvert which is AdtonesAdminWebApi.ViewModels.CampaignAdverts
LogLevel: 
 StackTrace  : 
------------END-------------------
-------------------START-------------09/03/2021 15:38:13
Page: AdvertService, Procedure: ApproveAd AdvertId=7419,ErrorMsg: Entered ApproveAd Ran UpdateStatus got System.Runtime.CompilerServices.AsyncTaskMethodBuilder`1+AsyncStateMachineBox`1[System.Boolean,AdtonesAdminWebApi.BusinessServices.AdvertService+<UpdateStatus>d__31]
LogLevel: 
 StackTrace  : 
------------END-------------------
-------------------START-------------10/03/2021 09:52:07
Page: AdvertService, Procedure: ApproveReject - ApproveAd AdvertId=7420,ErrorMsg: Entered Approve OR reject 1= pending
LogLevel: 
 StackTrace  : 
------------END-------------------
-------------------START-------------10/03/2021 09:52:08
Page: AdvertService, Procedure: ApproveAd AdvertId=7420,ErrorMsg: Entered ApproveAd Got campaignAdvert which is AdtonesAdminWebApi.ViewModels.CampaignAdverts
LogLevel: 
 StackTrace  : 
------------END-------------------
-------------------START-------------10/03/2021 09:52:11
Page: AdvertService, Procedure: ApproveAd AdvertId=7420,ErrorMsg: Entered ApproveAd Ran UpdateStatus got System.Runtime.CompilerServices.AsyncTaskMethodBuilder`1+AsyncStateMachineBox`1[System.Boolean,AdtonesAdminWebApi.BusinessServices.AdvertService+<UpdateStatus>d__31]
LogLevel: 
 StackTrace  : 
------------END-------------------
-------------------START-------------10/03/2021 09:59:43
Page: AdvertService, Procedure: ApproveReject - ApproveAd AdvertId=7421,ErrorMsg: Entered Approve OR reject 1= pending
LogLevel: 
 StackTrace  : 
------------END-------------------
-------------------START-------------10/03/2021 09:59:44
Page: AdvertService, Procedure: ApproveAd AdvertId=7421,ErrorMsg: Entered ApproveAd Got campaignAdvert which is AdtonesAdminWebApi.ViewModels.CampaignAdverts
LogLevel: 
 StackTrace  : 
------------END-------------------
-------------------START-------------10/03/2021 09:59:46
Page: AdvertService, Procedure: ApproveAd AdvertId=7421,ErrorMsg: Entered ApproveAd Ran UpdateStatus got System.Runtime.CompilerServices.AsyncTaskMethodBuilder`1+AsyncStateMachineBox`1[System.Boolean,AdtonesAdminWebApi.BusinessServices.AdvertService+<UpdateStatus>d__31]
LogLevel: 
 StackTrace  : 
------------END-------------------
-------------------START-------------10/03/2021 10:14:59
Page: AdvertService, Procedure: ApproveReject - ApproveAd AdvertId=7422,ErrorMsg: Entered Approve OR reject 1= pending
LogLevel: 
 StackTrace  : 
------------END-------------------
-------------------START-------------10/03/2021 10:15:00
Page: AdvertService, Procedure: ApproveAd AdvertId=7422,ErrorMsg: Entered ApproveAd Got campaignAdvert which is AdtonesAdminWebApi.ViewModels.CampaignAdverts
LogLevel: 
 StackTrace  : 
------------END-------------------
-------------------START-------------10/03/2021 10:15:02
Page: AdvertService, Procedure: ApproveAd AdvertId=7422,ErrorMsg: Entered ApproveAd Ran UpdateStatus got System.Runtime.CompilerServices.AsyncTaskMethodBuilder`1+AsyncStateMachineBox`1[System.Boolean,AdtonesAdminWebApi.BusinessServices.AdvertService+<UpdateStatus>d__31]
LogLevel: 
 StackTrace  : 
------------END-------------------
-------------------START-------------05/12/2021 09:18:06
Page: AdvertService, Procedure: ApproveReject - ApproveAd AdvertId=483,ErrorMsg: Entered Approve OR reject 1= pending
LogLevel: 
 StackTrace  : 
------------END-------------------
-------------------START-------------05/12/2021 09:18:08
Page: AdvertService, Procedure: ApproveAd AdvertId=483,ErrorMsg: Entered ApproveAd Got campaignAdvert which is AdtonesAdminWebApi.Model.CampaignAdverts
LogLevel: 
 StackTrace  : 
------------END-------------------
-------------------START-------------05/12/2021 09:18:08
Page: AdvertService, Procedure: ApproveAd AdvertId=483,ErrorMsg: Entered ApproveAd Ran UpdateStatus got System.Runtime.CompilerServices.AsyncTaskMethodBuilder`1+AsyncStateMachineBox`1[System.Boolean,AdtonesAdminWebApi.BusinessServices.AdvertService+<UpdateStatus>d__39]
LogLevel: 
 StackTrace  : 
------------END-------------------
-------------------START-------------05/12/2021 09:22:32
Page: AdvertService, Procedure: ApproveAd AdvertId=483,ErrorMsg: Entered ApproveAd Got campaignAdvert which is AdtonesAdminWebApi.Model.CampaignAdverts
LogLevel: 
 StackTrace  : 
------------END-------------------
-------------------START-------------05/12/2021 09:22:32
Page: AdvertService, Procedure: ApproveAd AdvertId=483,ErrorMsg: Entered ApproveAd Ran UpdateStatus got System.Runtime.CompilerServices.AsyncTaskMethodBuilder`1+AsyncStateMachineBox`1[System.Boolean,AdtonesAdminWebApi.BusinessServices.AdvertService+<UpdateStatus>d__39]
LogLevel: 
 StackTrace  : 
------------END-------------------
